EESchema Schematic File Version 2
LIBS:power
LIBS:device
LIBS:transistors
LIBS:conn
LIBS:linear
LIBS:regul
LIBS:74xx
LIBS:cmos4000
LIBS:adc-dac
LIBS:memory
LIBS:xilinx
LIBS:microcontrollers
LIBS:dsp
LIBS:microchip
LIBS:analog_switches
LIBS:motorola
LIBS:texas
LIBS:intel
LIBS:audio
LIBS:interface
LIBS:digital-audio
LIBS:philips
LIBS:display
LIBS:cypress
LIBS:siliconi
LIBS:opto
LIBS:atmel
LIBS:contrib
LIBS:valves
LIBS:k40-rpi-cnc-cache
EELAYER 25 0
EELAYER END
$Descr A4 11693 8268
encoding utf-8
Sheet 1 1
Title ""
Date ""
Rev ""
Comp ""
Comment1 ""
Comment2 ""
Comment3 ""
Comment4 ""
$EndDescr
$Comp
L GND #PWR01
U 1 1 5758EFD3
P 9050 5450
F 0 "#PWR01" H 9050 5200 50  0001 C CNN
F 1 "GND" H 9050 5300 50  0000 C CNN
F 2 "" H 9050 5450 50  0000 C CNN
F 3 "" H 9050 5450 50  0000 C CNN
	1    9050 5450
	1    0    0    -1  
$EndComp
$Comp
L VCC #PWR02
U 1 1 5758EFF3
P 9050 4400
F 0 "#PWR02" H 9050 4250 50  0001 C CNN
F 1 "VCC" H 9050 4550 50  0000 C CNN
F 2 "" H 9050 4400 50  0000 C CNN
F 3 "" H 9050 4400 50  0000 C CNN
	1    9050 4400
	1    0    0    -1  
$EndComp
$Comp
L CONN_01X02 P3
U 1 1 5758F013
P 9450 4900
F 0 "P3" H 9450 5050 50  0000 C CNN
F 1 "CONN_01X02" V 9550 4900 50  0000 C CNN
F 2 "Pin_Headers:Pin_Header_Straight_2x01" H 9950 4600 50  0000 C CNN
F 3 "" H 9450 4900 50  0000 C CNN
	1    9450 4900
	1    0    0    -1  
$EndComp
Wire Wire Line
	9050 4400 9050 4850
Wire Wire Line
	9050 4850 9250 4850
Wire Wire Line
	9250 4950 9050 4950
Wire Wire Line
	9050 4950 9050 5450
$Comp
L CONN_01X12 P1
U 1 1 575E46C4
P 5050 2450
F 0 "P1" H 5050 3100 50  0000 C CNN
F 1 "CONN_01X12" V 5150 2450 50  0000 C CNN
F 2 "WeisTek:-FFC" H 5050 2450 50  0001 C CNN
F 3 "" H 5050 2450 50  0000 C CNN
	1    5050 2450
	-1   0    0    1   
$EndComp
$Comp
L R R2
U 1 1 575E4A6F
P 6200 2200
F 0 "R2" V 6280 2200 50  0000 C CNN
F 1 "3K3" V 6200 2200 50  0000 C CNN
F 2 "Resistors_SMD:R_0805_HandSoldering" V 6130 2200 50  0001 C CNN
F 3 "" H 6200 2200 50  0000 C CNN
	1    6200 2200
	1    0    0    -1  
$EndComp
$Comp
L R R1
U 1 1 575E4B21
P 5950 2200
F 0 "R1" V 6030 2200 50  0000 C CNN
F 1 "3K3" V 5950 2200 50  0000 C CNN
F 2 "Resistors_SMD:R_0805_HandSoldering" V 5880 2200 50  0001 C CNN
F 3 "" H 5950 2200 50  0000 C CNN
	1    5950 2200
	1    0    0    -1  
$EndComp
$Comp
L VCC #PWR03
U 1 1 575E4CB9
P 6100 1900
F 0 "#PWR03" H 6100 1750 50  0001 C CNN
F 1 "VCC" H 6100 2050 50  0000 C CNN
F 2 "" H 6100 1900 50  0000 C CNN
F 3 "" H 6100 1900 50  0000 C CNN
	1    6100 1900
	1    0    0    -1  
$EndComp
$Comp
L GND #PWR04
U 1 1 575E4D06
P 7100 3850
F 0 "#PWR04" H 7100 3600 50  0001 C CNN
F 1 "GND" H 7100 3700 50  0000 C CNN
F 2 "" H 7100 3850 50  0000 C CNN
F 3 "" H 7100 3850 50  0000 C CNN
	1    7100 3850
	1    0    0    -1  
$EndComp
Wire Wire Line
	7100 3850 7100 2800
Wire Wire Line
	7700 3600 7700 3400
Wire Wire Line
	5650 3600 7700 3600
Connection ~ 7100 3600
Wire Wire Line
	5950 3200 7400 3200
Connection ~ 6100 1950
Wire Wire Line
	5950 2350 5950 3200
Wire Wire Line
	5950 1950 5950 2050
$Comp
L CONN_01X02 P2
U 1 1 575E50A8
P 9650 2400
F 0 "P2" H 9650 2550 50  0000 C CNN
F 1 "CONN_01X02" V 9750 2400 50  0000 C CNN
F 2 "Pin_Headers:Pin_Header_Straight_2x01" H 10150 2100 50  0000 C CNN
F 3 "" H 9650 2400 50  0000 C CNN
	1    9650 2400
	1    0    0    -1  
$EndComp
Wire Wire Line
	9450 2450 7700 2450
Wire Wire Line
	7700 2450 7700 3000
Wire Wire Line
	7100 2400 7100 2350
Wire Wire Line
	7100 2350 9450 2350
Wire Wire Line
	6200 1950 6200 2050
Wire Wire Line
	6100 1900 6100 1950
Wire Wire Line
	5250 2600 6800 2600
Wire Wire Line
	6200 2600 6200 2350
Connection ~ 6200 2600
Wire Wire Line
	5250 2700 5950 2700
Connection ~ 5950 2700
Text GLabel 4900 2600 0    60   Input ~ 0
x_home_in
Text GLabel 4900 2700 0    60   Input ~ 0
y_home_in
Text GLabel 9850 2350 2    60   Input ~ 0
x_home_out
Text GLabel 9850 2450 2    60   Input ~ 0
y_home_out
Connection ~ 5950 1950
$Comp
L CONN_01X04 P4
U 1 1 575E54EA
P 6150 1400
F 0 "P4" H 6150 1650 50  0000 C CNN
F 1 "CONN_01X04" V 6250 1400 50  0000 C CNN
F 2 "Pin_Headers:Pin_Header_Straight_1x04" H 6150 1400 50  0001 C CNN
F 3 "" H 6150 1400 50  0000 C CNN
	1    6150 1400
	1    0    0    -1  
$EndComp
Wire Wire Line
	5250 1900 5350 1900
Wire Wire Line
	5350 1900 5350 1250
Wire Wire Line
	5350 1250 5950 1250
Wire Wire Line
	5250 2000 5400 2000
Wire Wire Line
	5400 2000 5400 1350
Wire Wire Line
	5400 1350 5950 1350
Wire Wire Line
	5250 2100 5500 2100
Wire Wire Line
	5500 2100 5500 1450
Wire Wire Line
	5500 1450 5950 1450
Wire Wire Line
	5250 2200 5600 2200
Wire Wire Line
	5600 2200 5600 1550
Wire Wire Line
	5600 1550 5950 1550
Wire Wire Line
	5750 1950 6200 1950
Text GLabel 4850 1900 0    60   Input ~ 0
XA-
Text GLabel 4850 2000 0    60   Input ~ 0
XA+
Text GLabel 4850 2100 0    60   Input ~ 0
XB-
Text GLabel 4850 2200 0    60   Input ~ 0
XB+
Wire Wire Line
	5250 2800 5750 2800
Wire Wire Line
	5750 2800 5750 1950
Wire Wire Line
	5250 2500 5650 2500
Wire Wire Line
	5650 2500 5650 3600
$Comp
L C C1
U 1 1 5760D55F
P 8550 4900
F 0 "C1" H 8575 5000 50  0000 L CNN
F 1 "C" H 8575 4800 50  0000 L CNN
F 2 "Capacitors_SMD:C_0805_HandSoldering" H 8588 4750 50  0001 C CNN
F 3 "" H 8550 4900 50  0000 C CNN
	1    8550 4900
	1    0    0    -1  
$EndComp
Connection ~ 9050 5350
Connection ~ 9050 4500
$Comp
L MMBT3904 Q1
U 1 1 576388F8
P 7000 2600
F 0 "Q1" H 7200 2675 50  0000 L CNN
F 1 "MMBT2222A" H 7200 2600 50  0000 L CNN
F 2 "SOT-23" H 7200 2525 50  0000 L CIN
F 3 "" H 7000 2600 50  0000 L CNN
	1    7000 2600
	1    0    0    -1  
$EndComp
$Comp
L MMBT3904 Q2
U 1 1 5763896A
P 7600 3200
F 0 "Q2" H 7800 3275 50  0000 L CNN
F 1 "MMBT2222A" H 7800 3200 50  0000 L CNN
F 2 "SOT-23" H 7800 3125 50  0000 L CIN
F 3 "" H 7600 3200 50  0000 L CNN
	1    7600 3200
	1    0    0    -1  
$EndComp
Wire Wire Line
	8550 4500 8550 4750
Wire Wire Line
	8550 5050 8550 5350
Wire Wire Line
	8550 4500 9050 4500
Wire Wire Line
	8550 5350 9050 5350
$EndSCHEMATC
