PCBNEW-LibModule-V1   08/06/2016-21:44:36
$INDEX
-FFC
$EndINDEX
$MODULE -FFC
Po 0 0 0 15 00200000 00000000 ~~
Li -FFC
Cd 
Kw 
Sc 00000000
Op 0 0 0
At VIRTUAL
DS -3675 944 -3675 -944 160 21
DS -3675 -944 3675 -944 160 21
DS 3675 -944 3675 944 160 21
DS 3675 944 -3675 944 160 21
DS 3675 -1000 -3675 -1000 100 20
DS -3675 -1000 -3675 1000 100 20
DS -3675 1000 3675 1000 100 20
DS 3675 1000 3675 -1000 100 20
DS 3000 -1250 3500 -1250 100 20
T0 250 1650 700 700 0 60 N V 21 N ">NAME"
T1 600 -1850 700 700 0 60 N V 21 N ">VALUE"
T2 3410 -660 320 320 0 30 N V 21 N "1"
T2 -3180 90 320 320 0 30 N V 21 N "12"
$PAD
Sh "1" C 514 514 0 0 0
Dr 314 0 0 
At STD N 00A88001
Ne 0 ""
Po 2665 -492 
$EndPAD
$PAD
Sh "2" R 514 514 0 0 0
Dr 314 0 0 
At STD N 00A88001
Ne 0 ""
Po 2157 492 
$EndPAD
$PAD
Sh "3" C 514 514 0 0 0
Dr 314 0 0 
At STD N 00A88001
Ne 0 ""
Po 1681 -492 
$EndPAD
$PAD
Sh "4" C 514 514 0 0 0
Dr 314 0 0 
At STD N 00A88001
Ne 0 ""
Po 1173 492 
$EndPAD
$PAD
Sh "5" C 514 514 0 0 0
Dr 314 0 0 
At STD N 00A88001
Ne 0 ""
Po 696 -492 
$EndPAD
$PAD
Sh "6" C 514 514 0 0 0
Dr 314 0 0 
At STD N 00A88001
Ne 0 ""
Po 188 492 
$EndPAD
$PAD
Sh "7" C 514 514 0 0 0
Dr 314 0 0 
At STD N 00A88001
Ne 0 ""
Po -287 -492 
$EndPAD
$PAD
Sh "8" C 514 514 0 0 0
Dr 314 0 0 
At STD N 00A88001
Ne 0 ""
Po -795 492 
$EndPAD
$PAD
Sh "9" C 514 514 0 0 0
Dr 314 0 0 
At STD N 00A88001
Ne 0 ""
Po -1271 -492 
$EndPAD
$PAD
Sh "10" C 514 514 0 0 0
Dr 314 0 0 
At STD N 00A88001
Ne 0 ""
Po -1779 492 
$EndPAD
$PAD
Sh "11" C 514 514 0 0 0
Dr 314 0 0 
At STD N 00A88001
Ne 0 ""
Po -2255 -492 
$EndPAD
$PAD
Sh "12" C 514 514 0 0 0
Dr 314 0 0 
At STD N 00A88001
Ne 0 ""
Po -2763 492 
$EndPAD
$EndMODULE FFC
$EndLIBRARY
